[
      {
         "postId":"701",
         "userId":"6474",
         "topicId":"302",
         "username":"hades200721@gmail.com",
         "name":"Service stopped working?",
         "desc":"Service stopped working?",
         "comments":"null",
         "type":"null",
         "time":"2013-05-06 13:25:49.0"
      },
      {
         "postId":"704",
         "userId":"130",
         "topicId":"302",
         "username":"frengly.com",
         "name":"Re:",
         "desc":"It works fine, please check again",
         "comments":"null",
         "type":"null",
         "desc":"It works fine, please check again",
         "time":"2013-05-06 14:49:19.0"
      },
      {
         "postId":"706",
         "userId":"6474",
         "topicId":"302",
         "username":"hades200721@gmail.com",
         "name":"Re:",
         "desc":"I just checked 2 more api services and they working perfectly...\n\nthis service stopped working for me, when it used to work... i don't remember changing something :(",
         "comments":"null",
         "type":"null",
         "desc":"I just checked 2 more api services and they working perfectly...\n\nthis service stopped working for me, when it used to work... i don't remember changing something :(",
         "time":"2013-05-06 18:09:29.0"
      },
      {
         "postId":"707",
         "userId":"130",
         "topicId":"302",
         "username":"frengly.com",
         "name":"Re:",
         "desc":"Can you please paste the sample link the generates your client that doesnt work?",
         "comments":"null",
         "type":"null",
         "desc":"Can you please paste the sample link the generates your client that doesnt work?",
         "time":"2013-05-06 20:15:20.0"
      },
      {
         "postId":"708",
         "userId":"6474",
         "topicId":"302",
         "username":"hades200721@gmail.com",
         "name":"Re:",
         "desc":"Http:\/\/www.syslang.com\/frengly\/controller?action=translaterest&amp;src=en&amp;dest=ma&amp;text=good&amp;email=hades200721@gmail.com&amp;password=gleb007",
         "comments":"null",
         "type":"null",
         "desc":"Http:\/\/www.syslang.com\/frengly\/controller?action=translaterest&amp;src=en&amp;dest=ma&amp;text=good&amp;email=hades200721@gmail.com&amp;password=gleb007",
         "time":"2013-05-06 20:32:39.0"
      },
      {
         "postId":"709",
         "userId":"130",
         "topicId":"302",
         "username":"frengly.com",
         "name":"Re:",
         "desc":"I can see the problem, its translateREST, not translaterest",
         "comments":"null",
         "type":"null",
         "desc":"I can see the problem, its translateREST, not translaterest",
         "time":"2013-05-06 20:58:42.0"
      },
      {
         "postId":"710",
         "userId":"6474",
         "topicId":"302",
         "username":"hades200721@gmail.com",
         "name":"Re:",
         "desc":"I wrote translateREST when rest with capital letters it must be the copy paste in here :(",
         "comments":"null",
         "type":"null",
         "desc":"I wrote translateREST when rest with capital letters it must be the copy paste in here :(",
         "time":"2013-05-06 21:02:05.0"
      },
      {
         "postId":"715",
         "userId":"6474",
         "topicId":"302",
         "username":"hades200721@gmail.com",
         "name":"Re:",
         "desc":"Omg it's working, its finally working... i love you man!!!",
         "comments":"null",
         "type":"null",
         "desc":"Omg it's working, its finally working... i love you man!!!",
         "time":"2013-05-07 04:50:22.0"
      },
      {
         "postId":"716",
         "userId":"130",
         "topicId":"302",
         "username":"frengly.com",
         "name":"Re:",
         "desc":"You can use syslang.com in the url",
         "comments":"null",
         "type":"null",
         "desc":"You can use syslang.com in the url",
         "time":"2013-05-07 08:04:16.0"
      },
      {
         "postId":"763",
         "userId":"7579",
         "topicId":"302",
         "username":"floxter@hotmail.com",
         "name":"Re:",
         "desc":"Stopped working for me too",
         "comments":"null",
         "type":"null",
         "desc":"Stopped working for me too",
         "time":"2013-11-17 15:04:38.0"
      },
      {
         "postId":"764",
         "userId":"7579",
         "topicId":"302",
         "username":"floxter@hotmail.com",
         "name":"Re:",
         "desc":"Fixed!! my side.. sorry for disturb   :-)",
         "comments":"null",
         "type":"null",
         "desc":"Fixed!! my side.. sorry for disturb   :-)",
         "time":"2013-11-17 15:15:34.0"
      }
   ]